k_humacfeld = {
	1000.1.1 = { change_development_level = 8 }
}

d_wallor = {
	1000.1.1 = { change_development_level = 9 }
}

c_silverdocks = {
	1000.1.1 = { change_development_level = 13 }
}

c_southroad = {
	1000.1.1 = { change_development_level = 10 }
}

c_ionntras = {
	1000.1.1 = { change_development_level = 11 }
}

c_forkwic = {
	1000.1.1 = { change_development_level = 9 }
}

c_camircost = {
	1000.1.1 = { change_development_level = 10 }
}