﻿# Anbennar: commenting vanilla stuff (hopefully doesn't cause problems to those without dlc)

#### FOI MUSC




## Cue Tracks

mx_IberiaWar = {
	music = "event:/DLC/FP2/MUSIC/cuetracks/mx_Iberia_War"
	pause_factor = 35
}

mx_Struggle_ending_compromise = {
	music = "event:/DLC/FP2/MUSIC/cuetracks/mx_Struggle_ending_compromise"
	pause_factor = 30
}

mx_Struggle_ending_conciliation = {
	music = "event:/DLC/FP2/MUSIC/cuetracks/mx_Struggle_ending_conciliation"
	pause_factor = 30
}

mx_Struggle_ending_hostility = {
	music = "event:/DLC/FP2/MUSIC/cuetracks/mx_Struggle_ending_hostility"
	pause_factor = 30
}

mx_Struggle_Opening = {
	music = "event:/DLC/FP2/MUSIC/cuetracks/mx_Struggle_Opening"
	pause_factor = 30
}







## Mood Tracks


mx_iberian_moodTrack1 = {
	music = "event:/DLC/FP2/MUSIC/moodtrack/mx_iberian_moodTrack1"
	group = group_foi

	is_valid = {
		# OR = {
			# culture = {
				# has_cultural_pillar = heritage_iberian
			# }
			# culture = {
				# any_parent_culture_or_above = { has_cultural_pillar = heritage_iberian }
			# }
			# AND = {
				# exists = capital_province
				# capital_province = { geographical_region = world_europe_west_iberia }
			# }
		# }
		# Anbennar
		always = no # idk
	}
}

mx_iberian_moodTrack2 = {
	music = "event:/DLC/FP2/MUSIC/moodtrack/mx_iberian_moodTrack2"
	group = group_foi

	is_valid = {
		# OR = {
			# culture = {
				# has_cultural_pillar = heritage_iberian
			# }
			# culture = {
				# any_parent_culture_or_above = { has_cultural_pillar = heritage_iberian }
			# }
			# AND = {
				# exists = capital_province
				# capital_province = { geographical_region = world_europe_west_iberia }
			# }
		# }
		# Anbennar
		always = no # idk
	}
}

mx_iberian_moodTrack3 = {
	music = "event:/DLC/FP2/MUSIC/moodtrack/mx_iberian_moodTrack3"
	group = group_foi

	is_valid = {
		# OR = {
			# culture = {
				# has_cultural_pillar = heritage_iberian
			# }
			# culture = {
				# any_parent_culture_or_above = { has_cultural_pillar = heritage_iberian }
			# }
			# AND = {
				# exists = capital_province
				# capital_province = { geographical_region = world_europe_west_iberia }
			# }
		# }
		# Anbennar
		always = no # idk
	}
}



## Group settings

group_foi = {
 	subsequent_playback_chance = { 0.65 0.35 0.1 }
 	mood = yes
 	trigger_prio_override = yes
	can_be_interrupted = yes
	is_prioritized_mood = yes
	pause_factor = 15

	is_valid = { has_fp2_dlc_trigger = yes }
}

